128-bit LFSR/LFSR.vcd
$date
	Sat Jun 06 18:46:55 2020
$end
$version
	Icarus Verilog
$end
$timescale
	1ns
$end
$scope module tb $end
$var wire 128 ! out [127:0] $end
$var reg 1 " clk $end
$var reg 1 # enable $end
$var reg 1 $ reset $end
$scope module inst1 $end
$var wire 1 " clk $end
$var wire 1 # enable $end
$var wire 128 % out [127:0] $end
$var wire 1 $ reset $end
$var reg 128 & in [127:0] $end
$var reg 1 ' temp $end
$upscope $end
$upscope $end
$enddefinitions $end
#0
$dumpvars
x'
b11111111111111111111111111111111111111111111111111111111111111111111111111111111111111111111111111111111111111111111111111111111 &
b11111111111111111111111111111111111111111111111111111111111111111111111111111111111111111111111111111111111111111111111111111111 %
x$
x#
0"
b11111111111111111111111111111111111111111111111111111111111111111111111111111111111111111111111111111111111111111111111111111111 !
$end
#1
b11111111111111111111111111111111111111111111111111111111111111111111111111111111111111111111111111111111111111111111111111111110 !
b11111111111111111111111111111111111111111111111111111111111111111111111111111111111111111111111111111111111111111111111111111110 %
b11111111111111111111111111111111111111111111111111111111111111111111111111111111111111111111111111111111111111111111111111111110 &
0'
1#
0$
1"
#2
0"
#3
b11111111111111111111111111111111111111111111111111111111111111111111111111111111111111111111111111111111111111111111111111111100 !
b11111111111111111111111111111111111111111111111111111111111111111111111111111111111111111111111111111111111111111111111111111100 %
b11111111111111111111111111111111111111111111111111111111111111111111111111111111111111111111111111111111111111111111111111111100 &
1"
#4
0"
#5
b11111111111111111111111111111111111111111111111111111111111111111111111111111111111111111111111111111111111111111111111111111000 !
b11111111111111111111111111111111111111111111111111111111111111111111111111111111111111111111111111111111111111111111111111111000 %
b11111111111111111111111111111111111111111111111111111111111111111111111111111111111111111111111111111111111111111111111111111000 &
1"
#6
0"
#7
b11111111111111111111111111111111111111111111111111111111111111111111111111111111111111111111111111111111111111111111111111110000 !
b11111111111111111111111111111111111111111111111111111111111111111111111111111111111111111111111111111111111111111111111111110000 %
b11111111111111111111111111111111111111111111111111111111111111111111111111111111111111111111111111111111111111111111111111110000 &
1"
#8
0"
#9
b11111111111111111111111111111111111111111111111111111111111111111111111111111111111111111111111111111111111111111111111111100000 !
b11111111111111111111111111111111111111111111111111111111111111111111111111111111111111111111111111111111111111111111111111100000 %
b11111111111111111111111111111111111111111111111111111111111111111111111111111111111111111111111111111111111111111111111111100000 &
1"
#10
0"
#11
b11111111111111111111111111111111111111111111111111111111111111111111111111111111111111111111111111111111111111111111111111000000 !
b11111111111111111111111111111111111111111111111111111111111111111111111111111111111111111111111111111111111111111111111111000000 %
b11111111111111111111111111111111111111111111111111111111111111111111111111111111111111111111111111111111111111111111111111000000 &
1"
#12
0"
#13
b11111111111111111111111111111111111111111111111111111111111111111111111111111111111111111111111111111111111111111111111110000000 !
b11111111111111111111111111111111111111111111111111111111111111111111111111111111111111111111111111111111111111111111111110000000 %
b11111111111111111111111111111111111111111111111111111111111111111111111111111111111111111111111111111111111111111111111110000000 &
1"
#14
0"
#15
b11111111111111111111111111111111111111111111111111111111111111111111111111111111111111111111111111111111111111111111111100000000 !
b11111111111111111111111111111111111111111111111111111111111111111111111111111111111111111111111111111111111111111111111100000000 %
b11111111111111111111111111111111111111111111111111111111111111111111111111111111111111111111111111111111111111111111111100000000 &
1"
